2023-05-05T14:35:21+00:00 DEBUG POST: https://business-api.tiktok.com/open_api/v1.2/tbp/business_profile/store/update/

{"business_platform":"WOO_COMMERCE","external_business_id":"tt4b_woocommerce_643e20c9081cd","net_gmv":[{"interval":"LIFETIME","max":1048,"min":1048,"unit":"CURRENCY"}],"net_order_count":[{"interval":"LIFETIME","max":1,"min":1,"unit":"COUNT"}],"tenure":{"min":14,"max":14,"unit":"DAYS"},"extra_data":"{\"version\":\"1.0.16\"}"}
 ajax: no
2023-05-05T14:35:21+00:00 DEBUG Tt4b_Mapi_Class::mapi_post: Response: 

HTTP/1.1 200 OK
Server: nginx
Content-Type: application/json; charset=utf-8
Content-Length: 103
X-Api-Deprecation-Info: API for Business Version 1.3 is now live. To avoid disruption to your business, we recommend you migrate all calls to v1.3 as soon as possible. Please visit our migration guide for more details: https://ads.tiktok.com/marketing_api/docs?id=1740029169927169
X-Domain-Change-Info: We have moved to the new domain business-api.tiktok.com for API services after the Platform Upgrade on 09/30/2021. Please update all of your requests with the new domain if you haven't done so already. For more information, please visit https://ads.tiktok.com/marketing_api/docs?rid=esb88xalm6m&id=1709207085043713
X-Tt-Logid: 202305051435217529F9552ABC134B8250
x-tt-trace-host: 01909dd7cfbb58e859b1939a177de2208d4c77eb66012d4a50859aa87a19a64b0cbadefe1924bc70be99dc996710948ba2815cb7de6203494b21ce1c9ef9fdf0494ca9a231a49f1bdd4d98e1cc8b399e92adbdcd3f3be1a3127aadf32137fade8a055bea747deb7caa02187fc6afa0d8c1
X-Origin-Response-Time: 10,23.59.168.28
X-Akamai-Request-ID: a33d8e4b.39f1ccdb
Expires: Fri, 05 May 2023 14:35:22 GMT
Cache-Control: max-age=0, no-cache, no-store
Pragma: no-cache
Date: Fri, 05 May 2023 14:35:22 GMT
X-Cache: TCP_MISS from a23-217-111-126.deploy.akamaitechnologies.com (AkamaiGHost/11.0.3-47470434) (-)
Connection: close
X-Cache-Remote: TCP_MISS from a23-59-168-28.deploy.akamaitechnologies.com (AkamaiGHost/11.0.3-47470434) (-)
x-tt-trace-tag: id=16;cdn-cache=miss;type=dyn
Server-Timing: cdn-cache; desc=MISS, edge; dur=77, origin; dur=10
Server-Timing: inner; dur=7
X-Parent-Response-Time: 82,23.217.111.126

{"code":40104,"message":"The access_token is empty.","request_id":"202305051435217529F9552ABC134B8250"}

2023-05-05T14:35:31+00:00 DEBUG tt4b_product_delete: missing access token for tt4b_product_sync
